^C:\USERS\JAYSMITO MUKHERJEE\DESKTOP\SNAKEAI\OGL\OGL-CORE\CAMERA.CPP
/c /I..\OGL\VENDOR\ASSIMP\INCLUDE /I"..\OGL\OGL-CORE" /I..\OGL\VENDOR /I..\OGL\VENDOR\GLFW\INCLUDE /I..\OGL\VENDOR\GLAD\INCLUDE /I..\OGL\VENDOR\GLM /I..\SRC /I..\OGL\VENDOR\IMGUI /I..\OGL\VENDOR\IMPLOT /I..\OGL\VENDOR\LUA /I..\OGL\VENDOR\MUPARSER\INCLUDE /I"..\OGL\VENDOR\IMGUI-NODE-EDITOR" /ZI /JMC /nologo /W3 /WX- /diagnostics:column /Od /Oy- /D TERR3D_WIN32 /D SNAI_WIN32 /D _NO_CRT_STDIO_INLINE /D _CRT_SECURE_NO_WARNINGS /D TERR3D_DEBUG /D _UNICODE /D UNICODE /Gm- /EHsc /RTC1 /MTd /GS /fp:precise /Zc:wchar_t /Zc:forScope /Zc:inline /std:c++17 /Fo"..\BIN\INTERMEDIATES\DEBUG-WINDOWS-X86\SNAKEAI\\" /Fd"..\BIN\INTERMEDIATES\DEBUG-WINDOWS-X86\SNAKEAI\VC143.PDB" /external:W3 /Gd /TP /analyze- /FC C:\USERS\JAYSMITO MUKHERJEE\DESKTOP\SNAKEAI\OGL\OGL-CORE\CAMERA.CPP
^C:\USERS\JAYSMITO MUKHERJEE\DESKTOP\SNAKEAI\OGL\OGL-CORE\COMPUTESHADER.CPP
/c /I..\OGL\VENDOR\ASSIMP\INCLUDE /I"..\OGL\OGL-CORE" /I..\OGL\VENDOR /I..\OGL\VENDOR\GLFW\INCLUDE /I..\OGL\VENDOR\GLAD\INCLUDE /I..\OGL\VENDOR\GLM /I..\SRC /I..\OGL\VENDOR\IMGUI /I..\OGL\VENDOR\IMPLOT /I..\OGL\VENDOR\LUA /I..\OGL\VENDOR\MUPARSER\INCLUDE /I"..\OGL\VENDOR\IMGUI-NODE-EDITOR" /ZI /JMC /nologo /W3 /WX- /diagnostics:column /Od /Oy- /D TERR3D_WIN32 /D SNAI_WIN32 /D _NO_CRT_STDIO_INLINE /D _CRT_SECURE_NO_WARNINGS /D TERR3D_DEBUG /D _UNICODE /D UNICODE /Gm- /EHsc /RTC1 /MTd /GS /fp:precise /Zc:wchar_t /Zc:forScope /Zc:inline /std:c++17 /Fo"..\BIN\INTERMEDIATES\DEBUG-WINDOWS-X86\SNAKEAI\\" /Fd"..\BIN\INTERMEDIATES\DEBUG-WINDOWS-X86\SNAKEAI\VC143.PDB" /external:W3 /Gd /TP /analyze- /FC C:\USERS\JAYSMITO MUKHERJEE\DESKTOP\SNAKEAI\OGL\OGL-CORE\COMPUTESHADER.CPP
^C:\USERS\JAYSMITO MUKHERJEE\DESKTOP\SNAKEAI\OGL\OGL-CORE\ENTRYPOINT.CPP
/c /I..\OGL\VENDOR\ASSIMP\INCLUDE /I"..\OGL\OGL-CORE" /I..\OGL\VENDOR /I..\OGL\VENDOR\GLFW\INCLUDE /I..\OGL\VENDOR\GLAD\INCLUDE /I..\OGL\VENDOR\GLM /I..\SRC /I..\OGL\VENDOR\IMGUI /I..\OGL\VENDOR\IMPLOT /I..\OGL\VENDOR\LUA /I..\OGL\VENDOR\MUPARSER\INCLUDE /I"..\OGL\VENDOR\IMGUI-NODE-EDITOR" /ZI /JMC /nologo /W3 /WX- /diagnostics:column /Od /Oy- /D TERR3D_WIN32 /D SNAI_WIN32 /D _NO_CRT_STDIO_INLINE /D _CRT_SECURE_NO_WARNINGS /D TERR3D_DEBUG /D _UNICODE /D UNICODE /Gm- /EHsc /RTC1 /MTd /GS /fp:precise /Zc:wchar_t /Zc:forScope /Zc:inline /std:c++17 /Fo"..\BIN\INTERMEDIATES\DEBUG-WINDOWS-X86\SNAKEAI\\" /Fd"..\BIN\INTERMEDIATES\DEBUG-WINDOWS-X86\SNAKEAI\VC143.PDB" /external:W3 /Gd /TP /analyze- /FC C:\USERS\JAYSMITO MUKHERJEE\DESKTOP\SNAKEAI\OGL\OGL-CORE\ENTRYPOINT.CPP
^C:\USERS\JAYSMITO MUKHERJEE\DESKTOP\SNAKEAI\OGL\OGL-CORE\EXPORTTEXTURE.CPP
/c /I..\OGL\VENDOR\ASSIMP\INCLUDE /I"..\OGL\OGL-CORE" /I..\OGL\VENDOR /I..\OGL\VENDOR\GLFW\INCLUDE /I..\OGL\VENDOR\GLAD\INCLUDE /I..\OGL\VENDOR\GLM /I..\SRC /I..\OGL\VENDOR\IMGUI /I..\OGL\VENDOR\IMPLOT /I..\OGL\VENDOR\LUA /I..\OGL\VENDOR\MUPARSER\INCLUDE /I"..\OGL\VENDOR\IMGUI-NODE-EDITOR" /ZI /JMC /nologo /W3 /WX- /diagnostics:column /Od /Oy- /D TERR3D_WIN32 /D SNAI_WIN32 /D _NO_CRT_STDIO_INLINE /D _CRT_SECURE_NO_WARNINGS /D TERR3D_DEBUG /D _UNICODE /D UNICODE /Gm- /EHsc /RTC1 /MTd /GS /fp:precise /Zc:wchar_t /Zc:forScope /Zc:inline /std:c++17 /Fo"..\BIN\INTERMEDIATES\DEBUG-WINDOWS-X86\SNAKEAI\\" /Fd"..\BIN\INTERMEDIATES\DEBUG-WINDOWS-X86\SNAKEAI\VC143.PDB" /external:W3 /Gd /TP /analyze- /FC C:\USERS\JAYSMITO MUKHERJEE\DESKTOP\SNAKEAI\OGL\OGL-CORE\EXPORTTEXTURE.CPP
^C:\USERS\JAYSMITO MUKHERJEE\DESKTOP\SNAKEAI\OGL\OGL-CORE\FRAMEBUFFER.CPP
/c /I..\OGL\VENDOR\ASSIMP\INCLUDE /I"..\OGL\OGL-CORE" /I..\OGL\VENDOR /I..\OGL\VENDOR\GLFW\INCLUDE /I..\OGL\VENDOR\GLAD\INCLUDE /I..\OGL\VENDOR\GLM /I..\SRC /I..\OGL\VENDOR\IMGUI /I..\OGL\VENDOR\IMPLOT /I..\OGL\VENDOR\LUA /I..\OGL\VENDOR\MUPARSER\INCLUDE /I"..\OGL\VENDOR\IMGUI-NODE-EDITOR" /ZI /JMC /nologo /W3 /WX- /diagnostics:column /Od /Oy- /D TERR3D_WIN32 /D SNAI_WIN32 /D _NO_CRT_STDIO_INLINE /D _CRT_SECURE_NO_WARNINGS /D TERR3D_DEBUG /D _UNICODE /D UNICODE /Gm- /EHsc /RTC1 /MTd /GS /fp:precise /Zc:wchar_t /Zc:forScope /Zc:inline /std:c++17 /Fo"..\BIN\INTERMEDIATES\DEBUG-WINDOWS-X86\SNAKEAI\\" /Fd"..\BIN\INTERMEDIATES\DEBUG-WINDOWS-X86\SNAKEAI\VC143.PDB" /external:W3 /Gd /TP /analyze- /FC C:\USERS\JAYSMITO MUKHERJEE\DESKTOP\SNAKEAI\OGL\OGL-CORE\FRAMEBUFFER.CPP
^C:\USERS\JAYSMITO MUKHERJEE\DESKTOP\SNAKEAI\OGL\OGL-CORE\IMGUICURVEEDITOR.CPP
/c /I..\OGL\VENDOR\ASSIMP\INCLUDE /I"..\OGL\OGL-CORE" /I..\OGL\VENDOR /I..\OGL\VENDOR\GLFW\INCLUDE /I..\OGL\VENDOR\GLAD\INCLUDE /I..\OGL\VENDOR\GLM /I..\SRC /I..\OGL\VENDOR\IMGUI /I..\OGL\VENDOR\IMPLOT /I..\OGL\VENDOR\LUA /I..\OGL\VENDOR\MUPARSER\INCLUDE /I"..\OGL\VENDOR\IMGUI-NODE-EDITOR" /ZI /JMC /nologo /W3 /WX- /diagnostics:column /Od /Oy- /D TERR3D_WIN32 /D SNAI_WIN32 /D _NO_CRT_STDIO_INLINE /D _CRT_SECURE_NO_WARNINGS /D TERR3D_DEBUG /D _UNICODE /D UNICODE /Gm- /EHsc /RTC1 /MTd /GS /fp:precise /Zc:wchar_t /Zc:forScope /Zc:inline /std:c++17 /Fo"..\BIN\INTERMEDIATES\DEBUG-WINDOWS-X86\SNAKEAI\\" /Fd"..\BIN\INTERMEDIATES\DEBUG-WINDOWS-X86\SNAKEAI\VC143.PDB" /external:W3 /Gd /TP /analyze- /FC C:\USERS\JAYSMITO MUKHERJEE\DESKTOP\SNAKEAI\OGL\OGL-CORE\IMGUICURVEEDITOR.CPP
^C:\USERS\JAYSMITO MUKHERJEE\DESKTOP\SNAKEAI\OGL\OGL-CORE\IMGUIIMPLGLFW.CPP
/c /I..\OGL\VENDOR\ASSIMP\INCLUDE /I"..\OGL\OGL-CORE" /I..\OGL\VENDOR /I..\OGL\VENDOR\GLFW\INCLUDE /I..\OGL\VENDOR\GLAD\INCLUDE /I..\OGL\VENDOR\GLM /I..\SRC /I..\OGL\VENDOR\IMGUI /I..\OGL\VENDOR\IMPLOT /I..\OGL\VENDOR\LUA /I..\OGL\VENDOR\MUPARSER\INCLUDE /I"..\OGL\VENDOR\IMGUI-NODE-EDITOR" /ZI /JMC /nologo /W3 /WX- /diagnostics:column /Od /Oy- /D TERR3D_WIN32 /D SNAI_WIN32 /D _NO_CRT_STDIO_INLINE /D _CRT_SECURE_NO_WARNINGS /D TERR3D_DEBUG /D _UNICODE /D UNICODE /Gm- /EHsc /RTC1 /MTd /GS /fp:precise /Zc:wchar_t /Zc:forScope /Zc:inline /std:c++17 /Fo"..\BIN\INTERMEDIATES\DEBUG-WINDOWS-X86\SNAKEAI\\" /Fd"..\BIN\INTERMEDIATES\DEBUG-WINDOWS-X86\SNAKEAI\VC143.PDB" /external:W3 /Gd /TP /analyze- /FC C:\USERS\JAYSMITO MUKHERJEE\DESKTOP\SNAKEAI\OGL\OGL-CORE\IMGUIIMPLGLFW.CPP
^C:\USERS\JAYSMITO MUKHERJEE\DESKTOP\SNAKEAI\OGL\OGL-CORE\IMGUIIMPLOPENGL.CPP
/c /I..\OGL\VENDOR\ASSIMP\INCLUDE /I"..\OGL\OGL-CORE" /I..\OGL\VENDOR /I..\OGL\VENDOR\GLFW\INCLUDE /I..\OGL\VENDOR\GLAD\INCLUDE /I..\OGL\VENDOR\GLM /I..\SRC /I..\OGL\VENDOR\IMGUI /I..\OGL\VENDOR\IMPLOT /I..\OGL\VENDOR\LUA /I..\OGL\VENDOR\MUPARSER\INCLUDE /I"..\OGL\VENDOR\IMGUI-NODE-EDITOR" /ZI /JMC /nologo /W3 /WX- /diagnostics:column /Od /Oy- /D TERR3D_WIN32 /D SNAI_WIN32 /D _NO_CRT_STDIO_INLINE /D _CRT_SECURE_NO_WARNINGS /D TERR3D_DEBUG /D _UNICODE /D UNICODE /Gm- /EHsc /RTC1 /MTd /GS /fp:precise /Zc:wchar_t /Zc:forScope /Zc:inline /std:c++17 /Fo"..\BIN\INTERMEDIATES\DEBUG-WINDOWS-X86\SNAKEAI\\" /Fd"..\BIN\INTERMEDIATES\DEBUG-WINDOWS-X86\SNAKEAI\VC143.PDB" /external:W3 /Gd /TP /analyze- /FC C:\USERS\JAYSMITO MUKHERJEE\DESKTOP\SNAKEAI\OGL\OGL-CORE\IMGUIIMPLOPENGL.CPP
^C:\USERS\JAYSMITO MUKHERJEE\DESKTOP\SNAKEAI\OGL\OGL-CORE\IMGUISHAPES.CPP
/c /I..\OGL\VENDOR\ASSIMP\INCLUDE /I"..\OGL\OGL-CORE" /I..\OGL\VENDOR /I..\OGL\VENDOR\GLFW\INCLUDE /I..\OGL\VENDOR\GLAD\INCLUDE /I..\OGL\VENDOR\GLM /I..\SRC /I..\OGL\VENDOR\IMGUI /I..\OGL\VENDOR\IMPLOT /I..\OGL\VENDOR\LUA /I..\OGL\VENDOR\MUPARSER\INCLUDE /I"..\OGL\VENDOR\IMGUI-NODE-EDITOR" /ZI /JMC /nologo /W3 /WX- /diagnostics:column /Od /Oy- /D TERR3D_WIN32 /D SNAI_WIN32 /D _NO_CRT_STDIO_INLINE /D _CRT_SECURE_NO_WARNINGS /D TERR3D_DEBUG /D _UNICODE /D UNICODE /Gm- /EHsc /RTC1 /MTd /GS /fp:precise /Zc:wchar_t /Zc:forScope /Zc:inline /std:c++17 /Fo"..\BIN\INTERMEDIATES\DEBUG-WINDOWS-X86\SNAKEAI\\" /Fd"..\BIN\INTERMEDIATES\DEBUG-WINDOWS-X86\SNAKEAI\VC143.PDB" /external:W3 /Gd /TP /analyze- /FC C:\USERS\JAYSMITO MUKHERJEE\DESKTOP\SNAKEAI\OGL\OGL-CORE\IMGUISHAPES.CPP
^C:\USERS\JAYSMITO MUKHERJEE\DESKTOP\SNAKEAI\OGL\OGL-CORE\MESH.CPP
/c /I..\OGL\VENDOR\ASSIMP\INCLUDE /I"..\OGL\OGL-CORE" /I..\OGL\VENDOR /I..\OGL\VENDOR\GLFW\INCLUDE /I..\OGL\VENDOR\GLAD\INCLUDE /I..\OGL\VENDOR\GLM /I..\SRC /I..\OGL\VENDOR\IMGUI /I..\OGL\VENDOR\IMPLOT /I..\OGL\VENDOR\LUA /I..\OGL\VENDOR\MUPARSER\INCLUDE /I"..\OGL\VENDOR\IMGUI-NODE-EDITOR" /ZI /JMC /nologo /W3 /WX- /diagnostics:column /Od /Oy- /D TERR3D_WIN32 /D SNAI_WIN32 /D _NO_CRT_STDIO_INLINE /D _CRT_SECURE_NO_WARNINGS /D TERR3D_DEBUG /D _UNICODE /D UNICODE /Gm- /EHsc /RTC1 /MTd /GS /fp:precise /Zc:wchar_t /Zc:forScope /Zc:inline /std:c++17 /Fo"..\BIN\INTERMEDIATES\DEBUG-WINDOWS-X86\SNAKEAI\\" /Fd"..\BIN\INTERMEDIATES\DEBUG-WINDOWS-X86\SNAKEAI\VC143.PDB" /external:W3 /Gd /TP /analyze- /FC C:\USERS\JAYSMITO MUKHERJEE\DESKTOP\SNAKEAI\OGL\OGL-CORE\MESH.CPP
^C:\USERS\JAYSMITO MUKHERJEE\DESKTOP\SNAKEAI\OGL\OGL-CORE\MODEL.CPP
/c /I..\OGL\VENDOR\ASSIMP\INCLUDE /I"..\OGL\OGL-CORE" /I..\OGL\VENDOR /I..\OGL\VENDOR\GLFW\INCLUDE /I..\OGL\VENDOR\GLAD\INCLUDE /I..\OGL\VENDOR\GLM /I..\SRC /I..\OGL\VENDOR\IMGUI /I..\OGL\VENDOR\IMPLOT /I..\OGL\VENDOR\LUA /I..\OGL\VENDOR\MUPARSER\INCLUDE /I"..\OGL\VENDOR\IMGUI-NODE-EDITOR" /ZI /JMC /nologo /W3 /WX- /diagnostics:column /Od /Oy- /D TERR3D_WIN32 /D SNAI_WIN32 /D _NO_CRT_STDIO_INLINE /D _CRT_SECURE_NO_WARNINGS /D TERR3D_DEBUG /D _UNICODE /D UNICODE /Gm- /EHsc /RTC1 /MTd /GS /fp:precise /Zc:wchar_t /Zc:forScope /Zc:inline /std:c++17 /Fo"..\BIN\INTERMEDIATES\DEBUG-WINDOWS-X86\SNAKEAI\\" /Fd"..\BIN\INTERMEDIATES\DEBUG-WINDOWS-X86\SNAKEAI\VC143.PDB" /external:W3 /Gd /TP /analyze- /FC C:\USERS\JAYSMITO MUKHERJEE\DESKTOP\SNAKEAI\OGL\OGL-CORE\MODEL.CPP
^C:\USERS\JAYSMITO MUKHERJEE\DESKTOP\SNAKEAI\OGL\OGL-CORE\NODEEDITOR\NODEEDITOR.CPP
/c /I..\OGL\VENDOR\ASSIMP\INCLUDE /I"..\OGL\OGL-CORE" /I..\OGL\VENDOR /I..\OGL\VENDOR\GLFW\INCLUDE /I..\OGL\VENDOR\GLAD\INCLUDE /I..\OGL\VENDOR\GLM /I..\SRC /I..\OGL\VENDOR\IMGUI /I..\OGL\VENDOR\IMPLOT /I..\OGL\VENDOR\LUA /I..\OGL\VENDOR\MUPARSER\INCLUDE /I"..\OGL\VENDOR\IMGUI-NODE-EDITOR" /ZI /JMC /nologo /W3 /WX- /diagnostics:column /Od /Oy- /D TERR3D_WIN32 /D SNAI_WIN32 /D _NO_CRT_STDIO_INLINE /D _CRT_SECURE_NO_WARNINGS /D TERR3D_DEBUG /D _UNICODE /D UNICODE /Gm- /EHsc /RTC1 /MTd /GS /fp:precise /Zc:wchar_t /Zc:forScope /Zc:inline /std:c++17 /Fo"..\BIN\INTERMEDIATES\DEBUG-WINDOWS-X86\SNAKEAI\\" /Fd"..\BIN\INTERMEDIATES\DEBUG-WINDOWS-X86\SNAKEAI\VC143.PDB" /external:W3 /Gd /TP /analyze- /FC C:\USERS\JAYSMITO MUKHERJEE\DESKTOP\SNAKEAI\OGL\OGL-CORE\NODEEDITOR\NODEEDITOR.CPP
^C:\USERS\JAYSMITO MUKHERJEE\DESKTOP\SNAKEAI\OGL\OGL-CORE\QUICKHACK.CPP
/c /I..\OGL\VENDOR\ASSIMP\INCLUDE /I"..\OGL\OGL-CORE" /I..\OGL\VENDOR /I..\OGL\VENDOR\GLFW\INCLUDE /I..\OGL\VENDOR\GLAD\INCLUDE /I..\OGL\VENDOR\GLM /I..\SRC /I..\OGL\VENDOR\IMGUI /I..\OGL\VENDOR\IMPLOT /I..\OGL\VENDOR\LUA /I..\OGL\VENDOR\MUPARSER\INCLUDE /I"..\OGL\VENDOR\IMGUI-NODE-EDITOR" /ZI /JMC /nologo /W3 /WX- /diagnostics:column /Od /Oy- /D TERR3D_WIN32 /D SNAI_WIN32 /D _NO_CRT_STDIO_INLINE /D _CRT_SECURE_NO_WARNINGS /D TERR3D_DEBUG /D _UNICODE /D UNICODE /Gm- /EHsc /RTC1 /MTd /GS /fp:precise /Zc:wchar_t /Zc:forScope /Zc:inline /std:c++17 /Fo"..\BIN\INTERMEDIATES\DEBUG-WINDOWS-X86\SNAKEAI\\" /Fd"..\BIN\INTERMEDIATES\DEBUG-WINDOWS-X86\SNAKEAI\VC143.PDB" /external:W3 /Gd /TP /analyze- /FC C:\USERS\JAYSMITO MUKHERJEE\DESKTOP\SNAKEAI\OGL\OGL-CORE\QUICKHACK.CPP
^C:\USERS\JAYSMITO MUKHERJEE\DESKTOP\SNAKEAI\OGL\OGL-CORE\RENDERER.CPP
/c /I..\OGL\VENDOR\ASSIMP\INCLUDE /I"..\OGL\OGL-CORE" /I..\OGL\VENDOR /I..\OGL\VENDOR\GLFW\INCLUDE /I..\OGL\VENDOR\GLAD\INCLUDE /I..\OGL\VENDOR\GLM /I..\SRC /I..\OGL\VENDOR\IMGUI /I..\OGL\VENDOR\IMPLOT /I..\OGL\VENDOR\LUA /I..\OGL\VENDOR\MUPARSER\INCLUDE /I"..\OGL\VENDOR\IMGUI-NODE-EDITOR" /ZI /JMC /nologo /W3 /WX- /diagnostics:column /Od /Oy- /D TERR3D_WIN32 /D SNAI_WIN32 /D _NO_CRT_STDIO_INLINE /D _CRT_SECURE_NO_WARNINGS /D TERR3D_DEBUG /D _UNICODE /D UNICODE /Gm- /EHsc /RTC1 /MTd /GS /fp:precise /Zc:wchar_t /Zc:forScope /Zc:inline /std:c++17 /Fo"..\BIN\INTERMEDIATES\DEBUG-WINDOWS-X86\SNAKEAI\\" /Fd"..\BIN\INTERMEDIATES\DEBUG-WINDOWS-X86\SNAKEAI\VC143.PDB" /external:W3 /Gd /TP /analyze- /FC C:\USERS\JAYSMITO MUKHERJEE\DESKTOP\SNAKEAI\OGL\OGL-CORE\RENDERER.CPP
^C:\USERS\JAYSMITO MUKHERJEE\DESKTOP\SNAKEAI\OGL\OGL-CORE\SHADER.CPP
/c /I..\OGL\VENDOR\ASSIMP\INCLUDE /I"..\OGL\OGL-CORE" /I..\OGL\VENDOR /I..\OGL\VENDOR\GLFW\INCLUDE /I..\OGL\VENDOR\GLAD\INCLUDE /I..\OGL\VENDOR\GLM /I..\SRC /I..\OGL\VENDOR\IMGUI /I..\OGL\VENDOR\IMPLOT /I..\OGL\VENDOR\LUA /I..\OGL\VENDOR\MUPARSER\INCLUDE /I"..\OGL\VENDOR\IMGUI-NODE-EDITOR" /ZI /JMC /nologo /W3 /WX- /diagnostics:column /Od /Oy- /D TERR3D_WIN32 /D SNAI_WIN32 /D _NO_CRT_STDIO_INLINE /D _CRT_SECURE_NO_WARNINGS /D TERR3D_DEBUG /D _UNICODE /D UNICODE /Gm- /EHsc /RTC1 /MTd /GS /fp:precise /Zc:wchar_t /Zc:forScope /Zc:inline /std:c++17 /Fo"..\BIN\INTERMEDIATES\DEBUG-WINDOWS-X86\SNAKEAI\\" /Fd"..\BIN\INTERMEDIATES\DEBUG-WINDOWS-X86\SNAKEAI\VC143.PDB" /external:W3 /Gd /TP /analyze- /FC C:\USERS\JAYSMITO MUKHERJEE\DESKTOP\SNAKEAI\OGL\OGL-CORE\SHADER.CPP
^C:\USERS\JAYSMITO MUKHERJEE\DESKTOP\SNAKEAI\OGL\OGL-CORE\SHADERSTORAGEBUFFER.CPP
/c /I..\OGL\VENDOR\ASSIMP\INCLUDE /I"..\OGL\OGL-CORE" /I..\OGL\VENDOR /I..\OGL\VENDOR\GLFW\INCLUDE /I..\OGL\VENDOR\GLAD\INCLUDE /I..\OGL\VENDOR\GLM /I..\SRC /I..\OGL\VENDOR\IMGUI /I..\OGL\VENDOR\IMPLOT /I..\OGL\VENDOR\LUA /I..\OGL\VENDOR\MUPARSER\INCLUDE /I"..\OGL\VENDOR\IMGUI-NODE-EDITOR" /ZI /JMC /nologo /W3 /WX- /diagnostics:column /Od /Oy- /D TERR3D_WIN32 /D SNAI_WIN32 /D _NO_CRT_STDIO_INLINE /D _CRT_SECURE_NO_WARNINGS /D TERR3D_DEBUG /D _UNICODE /D UNICODE /Gm- /EHsc /RTC1 /MTd /GS /fp:precise /Zc:wchar_t /Zc:forScope /Zc:inline /std:c++17 /Fo"..\BIN\INTERMEDIATES\DEBUG-WINDOWS-X86\SNAKEAI\\" /Fd"..\BIN\INTERMEDIATES\DEBUG-WINDOWS-X86\SNAKEAI\VC143.PDB" /external:W3 /Gd /TP /analyze- /FC C:\USERS\JAYSMITO MUKHERJEE\DESKTOP\SNAKEAI\OGL\OGL-CORE\SHADERSTORAGEBUFFER.CPP
^C:\USERS\JAYSMITO MUKHERJEE\DESKTOP\SNAKEAI\OGL\OGL-CORE\SHADERUTILS.CPP
/c /I..\OGL\VENDOR\ASSIMP\INCLUDE /I"..\OGL\OGL-CORE" /I..\OGL\VENDOR /I..\OGL\VENDOR\GLFW\INCLUDE /I..\OGL\VENDOR\GLAD\INCLUDE /I..\OGL\VENDOR\GLM /I..\SRC /I..\OGL\VENDOR\IMGUI /I..\OGL\VENDOR\IMPLOT /I..\OGL\VENDOR\LUA /I..\OGL\VENDOR\MUPARSER\INCLUDE /I"..\OGL\VENDOR\IMGUI-NODE-EDITOR" /ZI /JMC /nologo /W3 /WX- /diagnostics:column /Od /Oy- /D TERR3D_WIN32 /D SNAI_WIN32 /D _NO_CRT_STDIO_INLINE /D _CRT_SECURE_NO_WARNINGS /D TERR3D_DEBUG /D _UNICODE /D UNICODE /Gm- /EHsc /RTC1 /MTd /GS /fp:precise /Zc:wchar_t /Zc:forScope /Zc:inline /std:c++17 /Fo"..\BIN\INTERMEDIATES\DEBUG-WINDOWS-X86\SNAKEAI\\" /Fd"..\BIN\INTERMEDIATES\DEBUG-WINDOWS-X86\SNAKEAI\VC143.PDB" /external:W3 /Gd /TP /analyze- /FC C:\USERS\JAYSMITO MUKHERJEE\DESKTOP\SNAKEAI\OGL\OGL-CORE\SHADERUTILS.CPP
^C:\USERS\JAYSMITO MUKHERJEE\DESKTOP\SNAKEAI\OGL\OGL-CORE\TEXTURE2D.CPP
/c /I..\OGL\VENDOR\ASSIMP\INCLUDE /I"..\OGL\OGL-CORE" /I..\OGL\VENDOR /I..\OGL\VENDOR\GLFW\INCLUDE /I..\OGL\VENDOR\GLAD\INCLUDE /I..\OGL\VENDOR\GLM /I..\SRC /I..\OGL\VENDOR\IMGUI /I..\OGL\VENDOR\IMPLOT /I..\OGL\VENDOR\LUA /I..\OGL\VENDOR\MUPARSER\INCLUDE /I"..\OGL\VENDOR\IMGUI-NODE-EDITOR" /ZI /JMC /nologo /W3 /WX- /diagnostics:column /Od /Oy- /D TERR3D_WIN32 /D SNAI_WIN32 /D _NO_CRT_STDIO_INLINE /D _CRT_SECURE_NO_WARNINGS /D TERR3D_DEBUG /D _UNICODE /D UNICODE /Gm- /EHsc /RTC1 /MTd /GS /fp:precise /Zc:wchar_t /Zc:forScope /Zc:inline /std:c++17 /Fo"..\BIN\INTERMEDIATES\DEBUG-WINDOWS-X86\SNAKEAI\\" /Fd"..\BIN\INTERMEDIATES\DEBUG-WINDOWS-X86\SNAKEAI\VC143.PDB" /external:W3 /Gd /TP /analyze- /FC C:\USERS\JAYSMITO MUKHERJEE\DESKTOP\SNAKEAI\OGL\OGL-CORE\TEXTURE2D.CPP
^C:\USERS\JAYSMITO MUKHERJEE\DESKTOP\SNAKEAI\OGL\OGL-CORE\TEXTURECUBEMAP.CPP
/c /I..\OGL\VENDOR\ASSIMP\INCLUDE /I"..\OGL\OGL-CORE" /I..\OGL\VENDOR /I..\OGL\VENDOR\GLFW\INCLUDE /I..\OGL\VENDOR\GLAD\INCLUDE /I..\OGL\VENDOR\GLM /I..\SRC /I..\OGL\VENDOR\IMGUI /I..\OGL\VENDOR\IMPLOT /I..\OGL\VENDOR\LUA /I..\OGL\VENDOR\MUPARSER\INCLUDE /I"..\OGL\VENDOR\IMGUI-NODE-EDITOR" /ZI /JMC /nologo /W3 /WX- /diagnostics:column /Od /Oy- /D TERR3D_WIN32 /D SNAI_WIN32 /D _NO_CRT_STDIO_INLINE /D _CRT_SECURE_NO_WARNINGS /D TERR3D_DEBUG /D _UNICODE /D UNICODE /Gm- /EHsc /RTC1 /MTd /GS /fp:precise /Zc:wchar_t /Zc:forScope /Zc:inline /std:c++17 /Fo"..\BIN\INTERMEDIATES\DEBUG-WINDOWS-X86\SNAKEAI\\" /Fd"..\BIN\INTERMEDIATES\DEBUG-WINDOWS-X86\SNAKEAI\VC143.PDB" /external:W3 /Gd /TP /analyze- /FC C:\USERS\JAYSMITO MUKHERJEE\DESKTOP\SNAKEAI\OGL\OGL-CORE\TEXTURECUBEMAP.CPP
^C:\USERS\JAYSMITO MUKHERJEE\DESKTOP\SNAKEAI\OGL\OGL-CORE\UIFONTMANAGER.CPP
/c /I..\OGL\VENDOR\ASSIMP\INCLUDE /I"..\OGL\OGL-CORE" /I..\OGL\VENDOR /I..\OGL\VENDOR\GLFW\INCLUDE /I..\OGL\VENDOR\GLAD\INCLUDE /I..\OGL\VENDOR\GLM /I..\SRC /I..\OGL\VENDOR\IMGUI /I..\OGL\VENDOR\IMPLOT /I..\OGL\VENDOR\LUA /I..\OGL\VENDOR\MUPARSER\INCLUDE /I"..\OGL\VENDOR\IMGUI-NODE-EDITOR" /ZI /JMC /nologo /W3 /WX- /diagnostics:column /Od /Oy- /D TERR3D_WIN32 /D SNAI_WIN32 /D _NO_CRT_STDIO_INLINE /D _CRT_SECURE_NO_WARNINGS /D TERR3D_DEBUG /D _UNICODE /D UNICODE /Gm- /EHsc /RTC1 /MTd /GS /fp:precise /Zc:wchar_t /Zc:forScope /Zc:inline /std:c++17 /Fo"..\BIN\INTERMEDIATES\DEBUG-WINDOWS-X86\SNAKEAI\\" /Fd"..\BIN\INTERMEDIATES\DEBUG-WINDOWS-X86\SNAKEAI\VC143.PDB" /external:W3 /Gd /TP /analyze- /FC C:\USERS\JAYSMITO MUKHERJEE\DESKTOP\SNAKEAI\OGL\OGL-CORE\UIFONTMANAGER.CPP
^C:\USERS\JAYSMITO MUKHERJEE\DESKTOP\SNAKEAI\OGL\OGL-CORE\WINDOW.CPP
/c /I..\OGL\VENDOR\ASSIMP\INCLUDE /I"..\OGL\OGL-CORE" /I..\OGL\VENDOR /I..\OGL\VENDOR\GLFW\INCLUDE /I..\OGL\VENDOR\GLAD\INCLUDE /I..\OGL\VENDOR\GLM /I..\SRC /I..\OGL\VENDOR\IMGUI /I..\OGL\VENDOR\IMPLOT /I..\OGL\VENDOR\LUA /I..\OGL\VENDOR\MUPARSER\INCLUDE /I"..\OGL\VENDOR\IMGUI-NODE-EDITOR" /ZI /JMC /nologo /W3 /WX- /diagnostics:column /Od /Oy- /D TERR3D_WIN32 /D SNAI_WIN32 /D _NO_CRT_STDIO_INLINE /D _CRT_SECURE_NO_WARNINGS /D TERR3D_DEBUG /D _UNICODE /D UNICODE /Gm- /EHsc /RTC1 /MTd /GS /fp:precise /Zc:wchar_t /Zc:forScope /Zc:inline /std:c++17 /Fo"..\BIN\INTERMEDIATES\DEBUG-WINDOWS-X86\SNAKEAI\\" /Fd"..\BIN\INTERMEDIATES\DEBUG-WINDOWS-X86\SNAKEAI\VC143.PDB" /external:W3 /Gd /TP /analyze- /FC C:\USERS\JAYSMITO MUKHERJEE\DESKTOP\SNAKEAI\OGL\OGL-CORE\WINDOW.CPP
^C:\USERS\JAYSMITO MUKHERJEE\DESKTOP\SNAKEAI\OGL\OGL-CORE\APPLICATION.CPP
/c /I..\OGL\VENDOR\ASSIMP\INCLUDE /I"..\OGL\OGL-CORE" /I..\OGL\VENDOR /I..\OGL\VENDOR\GLFW\INCLUDE /I..\OGL\VENDOR\GLAD\INCLUDE /I..\OGL\VENDOR\GLM /I..\SRC /I..\OGL\VENDOR\IMGUI /I..\OGL\VENDOR\IMPLOT /I..\OGL\VENDOR\LUA /I..\OGL\VENDOR\MUPARSER\INCLUDE /I"..\OGL\VENDOR\IMGUI-NODE-EDITOR" /ZI /JMC /nologo /W3 /WX- /diagnostics:column /Od /Oy- /D TERR3D_WIN32 /D SNAI_WIN32 /D _NO_CRT_STDIO_INLINE /D _CRT_SECURE_NO_WARNINGS /D TERR3D_DEBUG /D _UNICODE /D UNICODE /Gm- /EHsc /RTC1 /MTd /GS /fp:precise /Zc:wchar_t /Zc:forScope /Zc:inline /std:c++17 /Fo"..\BIN\INTERMEDIATES\DEBUG-WINDOWS-X86\SNAKEAI\\" /Fd"..\BIN\INTERMEDIATES\DEBUG-WINDOWS-X86\SNAKEAI\VC143.PDB" /external:W3 /Gd /TP /analyze- /FC C:\USERS\JAYSMITO MUKHERJEE\DESKTOP\SNAKEAI\OGL\OGL-CORE\APPLICATION.CPP
^C:\USERS\JAYSMITO MUKHERJEE\DESKTOP\SNAKEAI\SNAKEAI\SRC\MAIN.CPP
/c /I..\OGL\VENDOR\ASSIMP\INCLUDE /I"..\OGL\OGL-CORE" /I..\OGL\VENDOR /I..\OGL\VENDOR\GLFW\INCLUDE /I..\OGL\VENDOR\GLAD\INCLUDE /I..\OGL\VENDOR\GLM /I..\SRC /I..\OGL\VENDOR\IMGUI /I..\OGL\VENDOR\IMPLOT /I..\OGL\VENDOR\LUA /I..\OGL\VENDOR\MUPARSER\INCLUDE /I"..\OGL\VENDOR\IMGUI-NODE-EDITOR" /ZI /JMC /nologo /W3 /WX- /diagnostics:column /Od /Oy- /D TERR3D_WIN32 /D SNAI_WIN32 /D _NO_CRT_STDIO_INLINE /D _CRT_SECURE_NO_WARNINGS /D TERR3D_DEBUG /D _UNICODE /D UNICODE /Gm- /EHsc /RTC1 /MTd /GS /fp:precise /Zc:wchar_t /Zc:forScope /Zc:inline /std:c++17 /Fo"..\BIN\INTERMEDIATES\DEBUG-WINDOWS-X86\SNAKEAI\\" /Fd"..\BIN\INTERMEDIATES\DEBUG-WINDOWS-X86\SNAKEAI\VC143.PDB" /external:W3 /Gd /TP /analyze- /FC C:\USERS\JAYSMITO MUKHERJEE\DESKTOP\SNAKEAI\SNAKEAI\SRC\MAIN.CPP
^C:\USERS\JAYSMITO MUKHERJEE\DESKTOP\SNAKEAI\SNAKEAI\SRC\GAME\GRIDRENDERER.CPP
/c /I..\OGL\VENDOR\ASSIMP\INCLUDE /I"..\OGL\OGL-CORE" /I..\OGL\VENDOR /I..\OGL\VENDOR\GLFW\INCLUDE /I..\OGL\VENDOR\GLAD\INCLUDE /I..\OGL\VENDOR\GLM /I..\SRC /I..\OGL\VENDOR\IMGUI /I..\OGL\VENDOR\IMPLOT /I..\OGL\VENDOR\LUA /I..\OGL\VENDOR\MUPARSER\INCLUDE /I"..\OGL\VENDOR\IMGUI-NODE-EDITOR" /ZI /JMC /nologo /W3 /WX- /diagnostics:column /Od /Oy- /D TERR3D_WIN32 /D SNAI_WIN32 /D _NO_CRT_STDIO_INLINE /D _CRT_SECURE_NO_WARNINGS /D TERR3D_DEBUG /D _UNICODE /D UNICODE /Gm- /EHsc /RTC1 /MTd /GS /fp:precise /Zc:wchar_t /Zc:forScope /Zc:inline /std:c++17 /Fo"..\BIN\INTERMEDIATES\DEBUG-WINDOWS-X86\SNAKEAI\\" /Fd"..\BIN\INTERMEDIATES\DEBUG-WINDOWS-X86\SNAKEAI\VC143.PDB" /external:W3 /Gd /TP /analyze- /FC C:\USERS\JAYSMITO MUKHERJEE\DESKTOP\SNAKEAI\SNAKEAI\SRC\GAME\GRIDRENDERER.CPP
^C:\USERS\JAYSMITO MUKHERJEE\DESKTOP\SNAKEAI\SNAKEAI\SRC\GAME\UI.CPP
/c /I..\OGL\VENDOR\ASSIMP\INCLUDE /I"..\OGL\OGL-CORE" /I..\OGL\VENDOR /I..\OGL\VENDOR\GLFW\INCLUDE /I..\OGL\VENDOR\GLAD\INCLUDE /I..\OGL\VENDOR\GLM /I..\SRC /I..\OGL\VENDOR\IMGUI /I..\OGL\VENDOR\IMPLOT /I..\OGL\VENDOR\LUA /I..\OGL\VENDOR\MUPARSER\INCLUDE /I"..\OGL\VENDOR\IMGUI-NODE-EDITOR" /ZI /JMC /nologo /W3 /WX- /diagnostics:column /Od /Oy- /D TERR3D_WIN32 /D SNAI_WIN32 /D _NO_CRT_STDIO_INLINE /D _CRT_SECURE_NO_WARNINGS /D TERR3D_DEBUG /D _UNICODE /D UNICODE /Gm- /EHsc /RTC1 /MTd /GS /fp:precise /Zc:wchar_t /Zc:forScope /Zc:inline /std:c++17 /Fo"..\BIN\INTERMEDIATES\DEBUG-WINDOWS-X86\SNAKEAI\\" /Fd"..\BIN\INTERMEDIATES\DEBUG-WINDOWS-X86\SNAKEAI\VC143.PDB" /external:W3 /Gd /TP /analyze- /FC C:\USERS\JAYSMITO MUKHERJEE\DESKTOP\SNAKEAI\SNAKEAI\SRC\GAME\UI.CPP
^C:\USERS\JAYSMITO MUKHERJEE\DESKTOP\SNAKEAI\SNAKEAI\SRC\GAME\SNAKEGAME.CPP
/c /I..\OGL\VENDOR\ASSIMP\INCLUDE /I"..\OGL\OGL-CORE" /I..\OGL\VENDOR /I..\OGL\VENDOR\GLFW\INCLUDE /I..\OGL\VENDOR\GLAD\INCLUDE /I..\OGL\VENDOR\GLM /I..\SRC /I..\OGL\VENDOR\IMGUI /I..\OGL\VENDOR\IMPLOT /I..\OGL\VENDOR\LUA /I..\OGL\VENDOR\MUPARSER\INCLUDE /I"..\OGL\VENDOR\IMGUI-NODE-EDITOR" /ZI /JMC /nologo /W3 /WX- /diagnostics:column /Od /Oy- /D TERR3D_WIN32 /D SNAI_WIN32 /D _NO_CRT_STDIO_INLINE /D _CRT_SECURE_NO_WARNINGS /D TERR3D_DEBUG /D _UNICODE /D UNICODE /Gm- /EHsc /RTC1 /MTd /GS /fp:precise /Zc:wchar_t /Zc:forScope /Zc:inline /std:c++17 /Fo"..\BIN\INTERMEDIATES\DEBUG-WINDOWS-X86\SNAKEAI\\" /Fd"..\BIN\INTERMEDIATES\DEBUG-WINDOWS-X86\SNAKEAI\VC143.PDB" /external:W3 /Gd /TP /analyze- /FC C:\USERS\JAYSMITO MUKHERJEE\DESKTOP\SNAKEAI\SNAKEAI\SRC\GAME\SNAKEGAME.CPP
